IS415 - Take Home 2
…
set.seed(1234)
HCSA <- wm_idw %>% 
  mutate(local_Gi = local_gstar_perm(
    no_cases, nb, wt, nsim = 99),
    .before = 1) %>%
  unnest(local_Gi)
HCSA

Simple feature collection with 74 features and 21 fields
Geometry type: MULTIPOLYGON
Dimension:     XY
Bounding box:  xmin: 97.34336 ymin: 5.613038 xmax: 105.637 ymax: 20.46507
Geodetic CRS:  WGS 84
# A tibble: 74 × 22
   gi_star cluster   e_gi     var_gi std_dev p_value p_sim p_folded_sim skewness
     <dbl> <fct>    <dbl>      <dbl>   <dbl>   <dbl> <dbl>        <dbl>    <dbl>
 1 -0.355  High    0.0150 0.00000832 -0.942    0.346  0.4          0.2     0.115
 2  0.612  High    0.0140 0.0000145   0.705    0.481  0.42         0.21    0.577
 3  0.0231 Low     0.0117 0.0000132   0.511    0.609  0.56         0.28    0.372
 4 -0.621  Low     0.0129 0.00000979 -0.458    0.647  0.72         0.36    0.820
 5 -1.09   Low     0.0132 0.0000116  -0.969    0.333  0.28         0.14    0.432
 6 -1.28   Low     0.0122 0.0000182  -1.05     0.293  0.32         0.16    0.336
 7 -1.66   Low     0.0123 0.0000155  -1.38     0.168  0.14         0.07    0.427
 8 -1.80   Low     0.0116 0.0000147  -1.38     0.167  0.12         0.06    0.726
 9 -0.125  Low     0.0121 0.0000105   0.269    0.788  0.64         0.32    0.756
10  0.639  High    0.0163 0.0000150   0.0346   0.972  0.98         0.49    0.284
# ℹ 64 more rows
# ℹ 13 more variables: kurtosis <dbl>, nb <nb>, wts <list>, Shape_Leng <dbl>,
#   Shape_Area <dbl>, ADM1_EN <chr>, date <date>, validOn <date>,
#   validTo <date>, fiscal_year <dbl>, types_of_drug_offenses <chr>,
#   no_cases <dbl>, geometry <MULTIPOLYGON [°]>
…
