IS415 - In-class 6
…
set.seed(1234)
HCSA <- wm_idw %>% 
  mutate(local_Gi = local_gstar_perm(
    GDPPC, nb, wt, nsim = 99),
    .before = 1) %>%
  unnest(local_Gi)
HCSA

Simple feature collection with 88 features and 18 fields
Geometry type: POLYGON
Dimension:     XY
Bounding box:  xmin: 108.7831 ymin: 24.6342 xmax: 114.2544 ymax: 30.12812
Geodetic CRS:  WGS 84
# A tibble: 88 × 19
   gi_star cluster   e_gi     var_gi std_dev p_value p_sim p_folded_sim skewness
     <dbl> <fct>    <dbl>      <dbl>   <dbl>   <dbl> <dbl>        <dbl>    <dbl>
 1  0.0416 Low     0.0111 0.00000788  0.125  9.00e-1  0.86         0.43    1.74 
 2 -0.333  Low     0.0114 0.00000955 -0.296  7.67e-1  0.98         0.49    1.02 
 3  0.281  High    0.0123 0.00000929 -0.0176 9.86e-1  0.7          0.35    1.19 
 4  0.411  High    0.0112 0.00000942  0.453  6.51e-1  0.42         0.21    1.51 
 5  0.387  High    0.0113 0.00000816  0.434  6.65e-1  0.58         0.29    1.10 
 6 -0.368  High    0.0114 0.00000714 -0.384  7.01e-1  0.92         0.46    1.18 
 7  3.56   High    0.0144 0.00000565  3.25   1.15e-3  0.02         0.01    0.905
 8  2.52   High    0.0135 0.00000457  1.79   7.30e-2  0.14         0.07    0.629
 9  4.56   High    0.0143 0.00000404  4.29   1.77e-5  0.02         0.01    0.700
10  1.16   Low     0.0106 0.00000472  1.53   1.25e-1  0.18         0.09    0.499
# ℹ 78 more rows
# ℹ 10 more variables: kurtosis <dbl>, nb <nb>, wts <list>, NAME_2 <chr>,
#   ID_3 <int>, NAME_3 <chr>, ENGTYPE_3 <chr>, County <chr>, GDPPC <dbl>,
#   geometry <POLYGON [°]>
…
